Example #TidyTuesday Plots
…
count: false

.panel1-plot-bigmac-auto[

```r
*p <- big_mac_per_cap

p
```
]
 
.panel2-plot-bigmac-auto[

```
# A tibble: 37 × 4
   name           dollar_price gdp_dollar n_burgers
   <chr>                 <dbl>      <dbl>     <dbl>
 1 Argentina              3.51     11658.      3.32
 2 Australia              4.58     56420.     12.3 
 3 Brazil                 3.91      8959.      2.29
 4 Canada                 5.08     46290.      9.12
 5 Switzerland            6.91     83162.     12.0 
 6 Chile                  3.48     15902.      4.57
 7 China                  3.10      9580.      3.09
 8 Colombia               3.29      6642.      2.02
 9 Czech Republic         3.80     23113.      6.08
10 Denmark                4.58     60897.     13.3 
# … with 27 more rows
```
…
count: false

.panel1-plot-astro-auto[

```r
*p <- astronauts

p
```
]
 
.panel2-plot-astro-auto[

```
# A tibble: 564 × 4
      id name                     hours first_year
   <int> <chr>                    <dbl>      <dbl>
 1     1 Koch, Christina          7372.       2019
 2     2 Morgan, Andrew           4303.       2019
 3     3 Meir, Jessica            2698.       2019
 4     4 Al Mansoori, Hazzaa       189        2019
 5     5 Prokopyev, Sergei        4722        2018
 6     6 Auñón-Chancellor, Serena 4722        2018
 7     7 Hague, Tyler             4864        2018
 8     8 Saint-Jaques, David      4887        2018
 9     9 McClain, Anne Charlotte  4887        2018
10    10 Fischer, Jack            3258.       2017
# … with 554 more rows
```
…
